{"frames": {

"shape 1 образец 10000":
{
	"frame": {"x":0,"y":0,"w":118,"h":33},
	"rotated": false,
	"trimmed": false,
	"spriteSourceSize": {"x":0,"y":0,"w":118,"h":33},
	"sourceSize": {"w":118,"h":33}
}},
"meta": {
	"app": "Adobe Flash CS6",
	"version": "12.0.0.481",
	"image": "wordBlock.png",
	"format": "RGBA8888",
	"size": {"w":119,"h":33},
	"scale": "1"
}
}
